HPP
…
library(readr)         # For reading in CSV files
library(broom)         # For tidying model outputs
library(ggpubr)        # For  plots
#install.packages("multcompView")
library(multcompView)

(b) Load and Inspect Data

hpp_data <- read_excel("../Data/Data_MD.xlsx")

hpp_data

# A tibble: 234 × 6
   Organism Pressure    pH Acid    Rep Response
   <chr>       <dbl> <dbl> <chr> <dbl>    <dbl>
 1 L.mono        500   3.5 MA        1     0   
 2 L.mono        500   3.5 MA        2     6.84
 3 L.mono        500   3.5 MA        3     6.22
 4 L.mono        500   3.5 MA        4     6.19
 5 L.mono        500   4   MA        1     6.17
 6 L.mono        500   4   MA        2     6.36
 7 L.mono        500   4   MA        3     6.41
 8 L.mono        500   4   MA        4     6.03
 9 L.mono        500   4.5 MA        1     5.89
10 L.mono        500   4.5 MA        2     5.78
# ℹ 224 more rows
…
summary_hpp <- hpp %>%
  group_by(Organism, Pressure, pH, Acid, Rep, .groups = "drop") %>%
  summarise(
    mean_D = mean(Response, na.rm = TRUE),
    sd_D = sd(Response, na.rm = TRUE),
    n = n()
  )

`summarise()` has grouped output by 'Organism', 'Pressure', 'pH', 'Acid',
'Rep'. You can override using the `.groups` argument.

summary_hpp

# A tibble: 169 × 9
# Groups:   Organism, Pressure, pH, Acid, Rep [169]
   Organism Pressure pH    Acid  Rep   .groups mean_D   sd_D     n
   <fct>    <fct>    <fct> <fct> <fct> <chr>    <dbl>  <dbl> <int>
 1 E.coli   500      3.5   AA    1     drop      7.23  2.89      4
 2 E.coli   500      3.5   AA    2     drop      7.10  3.02      4
 3 E.coli   500      3.5   AA    3     drop      7.05  2.92      4
 4 E.coli   500      3.5   CA    1     drop      5.04  0.945     2
 5 E.coli   500      3.5   CA    2     drop      6.43 NA         1
 6 E.coli   500      3.5   CA    3     drop      6.61 NA         1
 7 E.coli   500      3.5   MA    1     drop      5.17  1.03      2
 8 E.coli   500      3.5   MA    2     drop      6.11 NA         1
 9 E.coli   500      3.5   MA    3     drop      6.30 NA         1
10 E.coli   500      4     AA    1     drop      7.08  2.84      4
# ℹ 159 more rows
…
